# 0 "hello.cpp"
# 0 "<built-in>"
# 0 "<command-line>"
# 1 "/usr/include/stdc-predef.h" 1 3 4
# 0 "<command-line>" 2
# 1 "hello.cpp"


# 1 "header1.hpp" 1
       
# 1 "header.hpp" 1



int one()
{
    return 1;
}

int two()
{
    return 2;
}
# 3 "header1.hpp" 2

int three()
{
    return two() + one();
}
# 4 "hello.cpp" 2



int main()
{
    int arr[5];
    auto res = three();

    return 0;
}
